{
  "android": {
      "debug": {
          "keystore": "D:/work/keystore/oops_it_google_play",
          "storePassword": "android",
          "alias": "mykey1",
          "password" : "password",
          "keystoreType": ""
      },
      "release": {
          "keystore": "../android.keystore",
          "storePassword": "",
          "alias": "mykey2",
          "password" : "password",
          "keystoreType": ""
      }
  }
}